AAA477579576
AAD506608605
AAM459560558
NSA469598583
01A459576570
02A492617606
03A486674620
04A469698615
05A493618600
06A449533550
07A501728648
08A526735656
09A488591579
NSD497643619
01D478598592
02D507638623
03D494681629
04D513730659
05D517640622
06D468570581
07D523741666
08D530739660
09D         
NSM449567559
01M451566560
02M462576574
03M439632573
04M452686598
05M478603586
06M442520539
07M464702616
08M468690602
09M483572566
ENA467716622
10A479721632
11A452694604
12A467729627
13A440708610
14A496719639
15A466720618
16A488706629
END497736649
10D504734655
11D472717624
12D498750656
13D462731638
14D514729656
15D493739643
16D510722653
ENM453706609
10M451707607
11M447688599
12M452718614
13M434702603
14M472704616
15M455711608
16M472695612
SSA486549571
17A533548591
18A498702639
19A517576591
20A472527560
21A483528558
22A467514541
SSD501565588
17D543557601
18D519722661
19D536586607
20D487545577
21D511554585
22D495533564
SSM465527547
17M498517558
18M462668600
19M508571584
20M440488523
21M428477504
22M456507533
HAA543547587
23A534550588
24A492535563
25A560535589
26A522553567
27A544539589
28A587619632
29A557580601
HAD564565606
23D550562602
24D514561591
25D572546604
26D548569587
27D559554605
28D593622638
29D580597620
HAM515524561
23M504526561
24M485527554
25M546522573
26M486530540
27M511506555
28M528583574
29M505540556
EDA455517542
30A442506518
31A478542556
32A427479513
33A447508541
34A457519554
35A470529563
36A495568584
37A437483519
38A430485518
39A450519532
EDD470532552
30D454513523
31D494558559
32D449505539
33D459521549
34D474542571
35D482539568
36D493560577
37D457499531
38D442499525
39D473542549
EDM452514540
30M439503517
31M475539556
32M425476511
33M447507541
34M444501537
35M463524561
36M495569585
37M434481518
38M429483517
39M446514529
BUA448568552
40A442600577
41A475690618
42A445539537
43A447587558
BUD483640599
40D         
41D509730652
42D472579562
43D478655607
BUM443556545
40M431582563
41M457669600
42M443536536
43M442573548
OTA472528549
44A481605578
45A474524550
46A430481525
47A538519564
48A457510525
49A534559585
50A436456500
51A471546564
OTD498548573
44D494620583
45D495535568
46D455508550
47D543539588
48D458499522
49D559578617
50D444470509
51D508568590
OTM467524544
44M481604578
45M470522546
46M421471516
47M538517563
48M458512526
49M511542560
50M435455499
51M458538555
